Chapter 5 Application

This chapter is concerned with the application of tectr to the V-Dem database. At first, it will present the metaframe and discuss the fx_write function. The second section will present fx_info and fx_output whereas the third section will consider fx_ggplot.

5.1 The metaframe

The folder “data-raw” contains the creation of the metaframe in detail. I have imported the codebook (Coppedge, Gerring, Knutsen, Carl Henrik Lindberg, et al. 2018) with the help of the pdftools package (Ooms 2018). Subsequently, I have read out different categories of information about the variables. The resulting data frame has been exported by fx_write_json which yielded the data frame mf_revisable:

mf_revisable

## # A tibble: 909 x 8
##    part_num chapter_num ind_num ind_type name  part_title chapter_title
##       <dbl>       <dbl>   <int> <chr>    <chr> <chr>      <chr>        
##  1        2           1       1 D        v2x_~ V-Dem Dem~ V-Dem High-L~
##  2        2           1       2 D        v2x_~ V-Dem Dem~ V-Dem High-L~
##  3        2           1       3 D        v2x_~ V-Dem Dem~ V-Dem High-L~
##  4        2           1       4 D        v2x_~ V-Dem Dem~ V-Dem High-L~
##  5        2           1       5 D        v2x_~ V-Dem Dem~ V-Dem High-L~
##  6        2           2       1 D        v2x_~ V-Dem Dem~ V-Dem Mid-Le~
##  7        2           2       2 D        v2x_~ V-Dem Dem~ V-Dem Mid-Le~
##  8        2           2       3 D        v2x_~ V-Dem Dem~ V-Dem Mid-Le~
##  9        2           2       4 D        v2x_~ V-Dem Dem~ V-Dem Mid-Le~
## 10        2           2       5 D        v2x_~ V-Dem Dem~ V-Dem Mid-Le~
## # ... with 899 more rows, and 1 more variable: main <S3: filepath>
…
I have only included a few exemplary fields in order to demonstrate that such a file is well-readable by humans.

At this stage, these variables may be modified by hand in order to add additional fields or correct typos.

Afterwards, the metaframe is completed by adding the parameters of fxGeom. This results in the vdem-object:

metaframe(vdem)

## # A tibble: 2,671 x 32
##    name  fxInfo_name part_num chapter_num ind_num ind_type part_title
##    <chr> <chr>          <dbl>       <dbl>   <int> <chr>    <chr>     
##  1 coun~ Country Na~       NA          NA      NA <NA>     <NA>      
##  2 year  Year              NA          NA      NA <NA>     <NA>      
##  3 v2x_~ Electoral ~        2           1       1 D        V-Dem Dem~
##  4 v2x_~ Electoral ~        2           1       1 D        V-Dem Dem~
##  5 v2x_~ Electoral ~        2           1       1 D        V-Dem Dem~
##  6 v2x_~ Liberal de~        2           1       2 D        V-Dem Dem~
##  7 v2x_~ Liberal de~        2           1       2 D        V-Dem Dem~
##  8 v2x_~ Liberal de~        2           1       2 D        V-Dem Dem~
##  9 v2x_~ Participat~        2           1       3 D        V-Dem Dem~
## 10 v2x_~ Participat~        2           1       3 D        V-Dem Dem~
## # ... with 2,661 more rows, and 25 more variables: chapter_title <chr>,
## #   fxInfo_aggregation <chr>, fxInfo_answer_type <chr>,
## #   fxInfo_citation <chr>, fxInfo_clarification <chr>,
## #   fxInfo_cpp_tag <chr>, fxInfo_cross_coder_aggregation <chr>,
## #   fxInfo_data_release <chr>, fxInfo_historical_clarification <chr>,
## #   fxInfo_notes <chr>, fxInfo_ordering <chr>,
## #   fxInfo_project_manager <list>, fxInfo_question <chr>,
## #   fxInfo_responses <list>, fxInfo_scale <chr>, fxInfo_sources <chr>,
## #   fxInfo_cautionary <chr>, fxGeom_class <chr>, fxGeom_assoc_vars <list>,
…
